{"urls": [
    {"name": "🌠TvbBox","url": "http://备用接口.dupan666.top"},
    {"name": "🍚饭太硬","url": "http://www.饭太硬.com/tv"},
    {"name": "😡小米暴脾气","url": "http://xhww.fun/小米/DEMO.json"},
    {"name": "🍯FongMI","url": "https://github.moeyy.xyz/raw.githubusercontent.com/gaotianliuyun/gao/master/0827.json"},
    {"name": "🗯️纯一骚零","url": "https://100km.top/0"},
    {"name": "🤟🏻OK屌炸天","url": "https://jihulab.com/okcaptain/kko/-/raw/main/ok.txt"},
    {"name": "💫巧技线路","url": "http://cdn.qiaoji8.com/tvbox.json"},
    {"name": "🌙霜辉月明","url": "https://api-lmteam.koyeb.app/files/py.json"},
    {"name": "🦠毒盒科技","url": "https://tv.youdu.fan:666/毒盒影视/"},
    {"name": "🥬菜妮丝","url": "https://tvbox.cainisi.cf"},
    {"name": "💽影音天堂","url": "https://www.huichunniao.cn/vip/4k/t.json"},
    {"name": "🅿️g One","url": "https://mirror.ghproxy.com/raw.githubusercontent.com/gaotianliuyun/gao/master/0825.json"},
    {"name": "☁️高天流云","url": "https://mirror.ghproxy.com/raw.githubusercontent.com/gaotianliuyun/gao/master/js.json"},
    {"name": "🥦香雅情","url": "https://github.moeyy.xyz/https://raw.githubusercontent.com/xyq254245/xyqonlinerule/main/XYQTVBox.json"},
    {"name": "🐱肥猫咪","url": "http://肥猫.live"},
    {"name": "😼老猫咪","url": "https://d.n13.club/"},
    {"name": "🐴小马哥","url": "https://szyyds.cn/tv/x.json"},
    {"name": "🤞🏻萌新小白","url": "http://bp.tvbox.cam/"},
    {"name": "🍃俊哥资源","url": "http://home.jundie.top:81/top98.json"},
    {"name": "🏟️道长仓","url": "https://pastebin.com/raw/5NHaxyGR"},
    {"name": "🛩️老刘备","url": "https://raw.liucn.cc/box/m.json"},
    {"name": "🚚运输车","url": "https://weixine.net/ysc.json"},
    {"name": "🌠星辰大海","url": "http://8.210.232.168/xc.json"},
    {"name": "♻️Dxawi0","url": "https://xhdwc.tk/0"},
    {"name": "🎭讴歌仓","url": "http://tv.nxog.top/m/"}
    ]}
    }
]}